{
  "modifiers": [
    {
      "stat": "crackslashmine:earth_bonus",
      "curveByLevel": [
        5.0,
        1.0,
        0.02
      ],
      "adjustmentFactor": 0.1,
      "baseSpread": 0.1
    }
  ],
  "intrinsicAnima": 0.5,
  "eligibleTypes": [
    "crackslashmine:ring",
    "crackslashmine:necklace",
    "crackslashmine:wand",
    "crackslashmine:gloves"
  ],
  "naming": {
    "affixFlags": [
      "proper_genitive",
      "adjective",
      "of_genitive"
    ]
  }
}
