{
  "modifiers": [
    {
      "stat": "crackslashmine:ice_bonus",
      "curveByLevel": [
        3.0,
        0.6,
        0.01
      ],
      "adjustmentFactor": 0.1,
      "baseSpread": 0.1
    },
    {
      "stat": "crackslashmine:lightning_bonus",
      "curveByLevel": [
        3.0,
        0.6,
        0.01
      ],
      "adjustmentFactor": 0.1,
      "baseSpread": 0.1
    }
  ],
  "intrinsicAnima": 0.7,
  "eligibleTypes": [
    "crackslashmine:ring",
    "crackslashmine:necklace",
    "crackslashmine:wand",
    "crackslashmine:gloves"
  ],
  "naming": {
    "affixFlags": [
      "adjective",
      "of_genitive"
    ]
  }
}
