{
  "modifiers": [
    {
      "stat": "crackslashmine:incoming_heal_multi",
      "curveByLevel": [
        300.0,
        0.5
      ],
      "adjustmentFactor": 0.1,
      "baseSpread": 0.2
    }
  ],
  "intrinsicAnima": 1.0,
  "eligibleTypes": [
    "crackslashmine:cloth_helmet",
    "crackslashmine:cloth_chestplate",
    "crackslashmine:cloth_leggings",
    "crackslashmine:cloth_boots"
  ],
  "naming": {
    "affixFlags": [
      "adjective",
      "of_genitive"
    ]
  }
}
