{
  "modifiers": [
    {
      "stat": "crackslashmine:kritikhaelh_rate",
      "curveByLevel": [
        500.0,
        10.0,
        0.1
      ],
      "adjustmentFactor": 0.1,
      "baseSpread": 0.1
    }
  ],
  "intrinsicAnima": 0.5,
  "eligibleTypes": [
    "crackslashmine:ring",
    "crackslashmine:necklace",
    "crackslashmine:cloth_chestplate",
    "crackslashmine:wand"
  ],
  "naming": {
    "affixFlags": [
      "adjective",
      "of_genitive"
    ]
  }
}
