{
  "modifiers": [
    {
      "stat": "crackslashmine:lightning_multi",
      "curveByLevel": [
        300.0,
        1.0
      ],
      "adjustmentFactor": 0.1,
      "baseSpread": 0.1
    }
  ],
  "intrinsicAnima": 1.5,
  "eligibleTypes": [
    "crackslashmine:cloth_helmet",
    "crackslashmine:cloth_chestplate",
    "crackslashmine:cloth_leggings",
    "crackslashmine:cloth_boots",
    "crackslashmine:ring",
    "crackslashmine:necklace",
    "crackslashmine:wand"
  ],
  "naming": {
    "affixFlags": [
      "proper_genitive",
      "adjective",
      "of_genitive"
    ]
  }
}
