{
  "castType": "lightning",
  "manaCostMultiplier": 10.0,
  "minLevel": 1,
  "maxLevel": 20,
  "cooldown": 40,
  "successActions": [
    {
      "type": "crackslashmine:play_sound",
      "event": "minecraft:entity.creeper.hurt",
      "category": "hostile"
    },
    {
      "type": "crackslashmine:spawn_entity",
      "entity": {
        "type": "crackslashmine:ball",
        "speed": 1.5,
        "damageType": "lightning",
        "multi": 0.5,
        "onCollideWithEntity": {
          "actions": [
            {
              "type": "crackslashmine:spawn_entity",
              "entity": {
                "type": "crackslashmine:lightning",
                "damageType": "lightning",
                "multi": 1.5
              }
            }
          ]
        },
        "onCollideWithBlock": {
          "actions": [
            {
              "type": "crackslashmine:spawn_entity",
              "entity": {
                "type": "crackslashmine:lightning",
                "damageType": "lightning",
                "multi": 1.5
              }
            }
          ]
        }
      }
    },
    {
      "type": "crackslashmine:particle",
      "particle": {"type": "minecraft:crit"},
      "count": 20
    }
  ],
  "backfireActions": [
    {
      "type": "crackslashmine:apply_effect",
      "target": {"type": "crackslashmine:self"},
      "effect": "minecraft:weakness",
      "intensity": 0,
      "minTime": 75,
      "maxTime": 104
    },
    {
      "type": "crackslashmine:apply_extended_effect",
      "target": {"type": "crackslashmine:self"},
      "effect": "crackslashmine:dot_lightning",
      "fixed": 0,
      "multi": 3.0,
      "minTime": 200,
      "maxTime": 200
    },
    {
      "type": "crackslashmine:play_sound",
      "event": "minecraft:entity.creeper.primed",
      "category": "hostile"
    }
  ]
}