{
  "castType": "darkness",
  "manaCostMultiplier": 15.0,
  "minLevel": 1,
  "maxLevel": 20,
  "cooldown": 600,
  "successActions": [
    {
      "type": "crackslashmine:play_sound",
      "event": "minecraft:entity.wither.spawn",
      "category": "hostile"
    },
    {
      "type": "crackslashmine:damage",
      "target": {
        "type": "crackslashmine:self"
      },
      "damageType": "darkness",
      "multi": 1.8
    },
    {
      "type": "crackslashmine:apply_extended_effect",
      "target": {
        "type": "crackslashmine:self"
      },
      "effect": "crackslashmine:darkness_bonus_boost",
      "fixed": 0,
      "multi": 0.1,
      "minTime": 350,
      "maxTime": 370
    },
    {
      "type": "crackslashmine:apply_extended_effect",
      "target": {
        "type": "crackslashmine:self"
      },
      "effect": "crackslashmine:universal_damage_boost",
      "fixed": 1000,
      "multi": 0,
      "minTime": 350,
      "maxTime": 370
    },
    {
      "type": "crackslashmine:particle",
      "particle": {"type": "minecraft:damage_indicator"},
      "count": 20
    }
  ],
  "backfireActions": [
    {
      "type": "crackslashmine:apply_effect",
      "target": {"type": "crackslashmine:self"},
      "effect": "minecraft:blindness",
      "intensity": 0,
      "minTime": 75,
      "maxTime": 94
    },
    {
      "type": "crackslashmine:apply_extended_effect",
      "target": {"type": "crackslashmine:self"},
      "effect": "crackslashmine:dot_darkness",
      "fixed": 0,
      "multi": 3.0,
      "minTime": 200,
      "maxTime": 200
    },
    {
      "type": "crackslashmine:play_sound",
      "event": "minecraft:entity.wither.shoot",
      "category": "player"
    }
  ]
}