{
  "type": "crackslashmine:cloth_boots",
  "minLevel": 8,
  "maxLevel": 18,
  "baseValue": 40,
  "naming": {
    "alternateNames": [
      "csm.alternateName.crackslashmine.enchanted_slippers"
    ]
  }
}
