{
  "type": "minecraft:crafting_shaped",
  "pattern": [
    "M M",
    "MMM",
    "MMM"
  ],
  "key": {
    "M": {
      "item": "crackslashmine:enchanted_cloth"
    }
  },
  "result": {
    "item": "crackslashmine:enchanted_cloth_chestplate"
  }
}
