{
  "word": "DIM",
  "entries": [
    {
      "stat": "crackslashmine:darkness_multi",
      "curveByLevel": [500.0],
      "bonusPerPower": 0.01
    },
    {
      "stat": "crackslashmine:resistance",
      "curveByLevel": [500.0, 1.0],
      "bonusPerPower": 0.01
    },
    {
      "stat": "crackslashmine:loot_find",
      "curveByLevel": [-200.0],
      "bonusPerPower": 0.005
    },
    {
      "stat": "crackslashmine:gold_find",
      "curveByLevel": [-200.0],
      "bonusPerPower": 0.005
    }
  ]
}
