{
  "word": "HAU",
  "entries": [
    {
      "stat": "crackslashmine:wind_multi",
      "curveByLevel": [500.0],
      "bonusPerPower": 0.01
    },
    {
      "stat": "crackslashmine:endurance",
      "curveByLevel": [1.0],
      "bonusPerPower": 0.005
    },
    {
      "stat": "crackslashmine:dexterity",
      "curveByLevel": [1.0],
      "bonusPerPower": 0.005
    }
  ]
}
