{
  "word": "ICE",
  "entries": [
    {
      "stat": "crackslashmine:ice_multi",
      "curveByLevel": [500.0],
      "bonusPerPower": 0.01
    },
    {
      "stat": "crackslashmine:fortitude",
      "curveByLevel": [1.0],
      "bonusPerPower": 0.005
    },
    {
      "stat": "crackslashmine:resistance",
      "curveByLevel": [200.0, 1.0],
      "bonusPerPower": 0.005
    }
  ]
}
