{
  "word": "POW",
  "entries": [
    {
      "stat": "crackslashmine:lightning_multi",
      "curveByLevel": [500.0],
      "bonusPerPower": 0.01
    },
    {
      "stat": "crackslashmine:critical_damage",
      "curveByLevel": [300.0, 1.0],
      "bonusPerPower": 0.005
    },
    {
      "stat": "crackslashmine:kritikhaelh_damage",
      "curveByLevel": [300.0, 1.0],
      "bonusPerPower": 0.005
    },
    {
      "stat": "crackslashmine:strength",
      "curveByLevel": [2.4, 0.01],
      "bonusPerPower": 0.01
    },
    {
      "stat": "crackslashmine:fortitude",
      "curveByLevel": [-2.0, -0.01],
      "bonusPerPower": 0.01
    }
  ]
}
